// Jest Snapshot v1, https://goo.gl/fbAQLP

exports[`renders Tag without crashing 1`] = `
<span
  className="px-4 py-2 rounded-lg border border-indigo-800 bg-indigo-500 text-white flex items-center justify-start max-w-[8rem] flex-nowrap"
>
  <div
    className="truncate"
  >
    Any text
  </div>
</span>
`;
